…
``` r
options(tibble.print_min = 5)
```

Loading and cleaning the dataset.

``` r
pulse_data = 
  haven::read_sas("./data/public_pulse_data.sas7bdat") %>%
  janitor::clean_names()
pulse_data
```

    ## # A tibble: 1,087 x 7
    ##      id   age sex   bdi_score_bl bdi_score_01m bdi_score_06m bdi_score_12m
    ##   <dbl> <dbl> <chr>        <dbl>         <dbl>         <dbl>         <dbl>
    ## 1 10003  48.0 male             7             1             2             0
    ## 2 10015  72.5 male             6            NA            NA            NA
    ## 3 10022  58.5 male            14             3             8            NA
    ## 4 10026  72.7 male            20             6            18            16
    ## 5 10035  60.4 male             4             0             1             2
    ## # ... with 1,082 more rows
…
print(pulse_data, n = 12)
```

    ## # A tibble: 4,348 x 5
    ##    visit    id   age sex     bdi
    ##    <fct> <dbl> <dbl> <chr> <dbl>
    ##  1 00m   10003  48.0 male      7
    ##  2 01m   10003  48.0 male      1
    ##  3 06m   10003  48.0 male      2
    ##  4 12m   10003  48.0 male      0
    ##  5 00m   10015  72.5 male      6
    ##  6 01m   10015  72.5 male     NA
    ##  7 06m   10015  72.5 male     NA
    ##  8 12m   10015  72.5 male     NA
    ##  9 00m   10022  58.5 male     14
    ## 10 01m   10022  58.5 male      3
    ## 11 06m   10022  58.5 male      8
    ## 12 12m   10022  58.5 male     NA
    ## # ... with 4,336 more rows
…
fas_data = 
  left_join(pup_data, litter_data, by = "litter_number")

fas_data
```

    ## # A tibble: 313 x 15
    ##   litter_number sex   pd_ears pd_eyes pd_pivot pd_walk dose  day_of_tx
    ##   <chr>         <chr>   <int>   <int>    <int>   <int> <chr> <chr>    
    ## 1 #85           male        4      13        7      11 con   7        
    ## 2 #85           male        4      13        7      12 con   7        
    ## 3 #1/2/95/2     male        5      13        7       9 con   7        
    ## 4 #1/2/95/2     male        5      13        8      10 con   7        
    ## 5 #5/5/3/83/3-3 male        5      13        8      10 con   7        
    ## # ... with 308 more rows, and 7 more variables: gd0_weight <dbl>,
    ## #   gd18_weight <dbl>, gd_of_birth <int>, pups_born_alive <int>,
    ## #   pups_dead_birth <int>, pups_survive <int>, wt_gain <dbl>
…
    ## Parsed with column specification:
    ## cols(
    ##   `What is your UNI?` = col_character(),
    ##   `What operating system do you use?` = col_character()
    ## )

``` r
survey_os
```

    ## # A tibble: 173 x 2
    ##   uni         os        
    ##   <chr>       <chr>     
    ## 1 student_87  <NA>      
    ## 2 student_106 Windows 10
    ## 3 student_66  Mac OS X  
    ## 4 student_93  Windows 10
    ## 5 student_99  Mac OS X  
    ## # ... with 168 more rows
…
    ## Parsed with column specification:
    ## cols(
    ##   `What is your UNI?` = col_character(),
    ##   `What is your degree program?` = col_character(),
    ##   `Which most accurately describes your experience with Git?` = col_character()
    ## )

``` r
survey_pr_git
```

    ## # A tibble: 135 x 3
    ##   uni        degree git                                                         
    ##   <chr>      <chr>  <chr>                                                       
    ## 1 student_1~ MS     Pretty smooth: needed some work to connect Git, GitHub, and~
    ## 2 student_32 MS     Not smooth: I don't like git, I don't like GitHub, and I do~
    ## 3 <NA>       MPH    Pretty smooth: needed some work to connect Git, GitHub, and~
    ## 4 student_1~ MPH    Not smooth: I don't like git, I don't like GitHub, and I do~
    ## 5 student_17 PhD    Pretty smooth: needed some work to connect Git, GitHub, and~
    ## # ... with 130 more rows

``` r
left_join(survey_os, survey_pr_git, by = "uni")
```

    ## # A tibble: 175 x 4
    ##   uni       os        degree git                                                
    ##   <chr>     <chr>     <chr>  <chr>                                              
    ## 1 student_~ <NA>      MS     Pretty smooth: needed some work to connect Git, Gi~
    ## 2 student_~ Windows ~ Other  Pretty smooth: needed some work to connect Git, Gi~
    ## 3 student_~ Mac OS X  MPH    Smooth: installation and connection with GitHub wa~
    ## 4 student_~ Windows ~ MS     Smooth: installation and connection with GitHub wa~
    ## 5 student_~ Mac OS X  MS     Smooth: installation and connection with GitHub wa~
    ## # ... with 170 more rows
